{
	"info": {
		"_postman_id": "ae477e8f-0a1f-4e5e-bc89-9c9a4a9b9ccf",
		"name": "Odata HomeWork",
		"schema": "https://schema.getpostman.com/json/collection/v2.1.0/collection.json"
	},
	"item": [
		{
			"name": "Get Companies",
			"request": {
				"method": "GET",
				"header": [],
				"url": {
					"raw": "https://localhost:18401/odata/Company",
					"protocol": "https",
					"host": [
						"localhost"
					],
					"port": "18401",
					"path": [
						"odata",
						"Company"
					]
				}
			},
			"response": []
		},
		{
			"name": "Get Names",
			"request": {
				"method": "GET",
				"header": [],
				"url": {
					"raw": "https://localhost:18401/odata/Company?$select=name",
					"protocol": "https",
					"host": [
						"localhost"
					],
					"port": "18401",
					"path": [
						"odata",
						"Company"
					],
					"query": [
						{
							"key": "$select",
							"value": "name"
						}
					]
				}
			},
			"response": []
		},
		{
			"name": "Get rating",
			"request": {
				"method": "GET",
				"header": [],
				"url": {
					"raw": "https://localhost:18401/odata/Company?$select=rating",
					"protocol": "https",
					"host": [
						"localhost"
					],
					"port": "18401",
					"path": [
						"odata",
						"Company"
					],
					"query": [
						{
							"key": "$select",
							"value": "rating"
						}
					]
				}
			},
			"response": []
		},
		{
			"name": "Get Companies filter by rating",
			"request": {
				"method": "GET",
				"header": [],
				"url": {
					"raw": "https://localhost:18401/odata/Company?$filter=rating le 8",
					"protocol": "https",
					"host": [
						"localhost"
					],
					"port": "18401",
					"path": [
						"odata",
						"Company"
					],
					"query": [
						{
							"key": "$filter",
							"value": "rating le 8"
						}
					]
				}
			},
			"response": []
		},
		{
			"name": "Get Companies name filter by rating",
			"request": {
				"method": "GET",
				"header": [],
				"url": {
					"raw": "https://localhost:18401/odata/Company?$select=name&$filter=rating le 8",
					"protocol": "https",
					"host": [
						"localhost"
					],
					"port": "18401",
					"path": [
						"odata",
						"Company"
					],
					"query": [
						{
							"key": "$select",
							"value": "name"
						},
						{
							"key": "$filter",
							"value": "rating le 8"
						}
					]
				}
			},
			"response": []
		},
		{
			"name": "Get Companies names filter by rating and name of special drink",
			"request": {
				"method": "GET",
				"header": [],
				"url": {
					"raw": "https://localhost:18401/odata/Company?$select=name&$filter=rating le 8&$expand=specialDrink($select=Name)",
					"protocol": "https",
					"host": [
						"localhost"
					],
					"port": "18401",
					"path": [
						"odata",
						"Company"
					],
					"query": [
						{
							"key": "$select",
							"value": "name"
						},
						{
							"key": "$filter",
							"value": "rating le 8"
						},
						{
							"key": "$expand",
							"value": "specialDrink($select=Name)"
						}
					]
				}
			},
			"response": []
		},
		{
			"name": "Post Company",
			"request": {
				"method": "POST",
				"header": [],
				"body": {
					"mode": "raw",
					"raw": "{\r\n    \"name\" : \"Juan Valdez\",\r\n    \"rating\" : 9,\r\n    \"specialDrink\" : \r\n    {\r\n        \"Name\" : \"Cappuccino\",\r\n        \"Rating\" : 8\r\n    }\r\n}",
					"options": {
						"raw": {
							"language": "json"
						}
					}
				},
				"url": {
					"raw": "https://localhost:18401/odata/Company",
					"protocol": "https",
					"host": [
						"localhost"
					],
					"port": "18401",
					"path": [
						"odata",
						"Company"
					]
				}
			},
			"response": []
		},
		{
			"name": "Get Companies names filter by rating and order by name ",
			"request": {
				"method": "GET",
				"header": [],
				"url": {
					"raw": "https://localhost:18401/odata/Company?$select=name&$filter=rating le 8&orderby=name&$expand=specialDrink($select=Name)",
					"protocol": "https",
					"host": [
						"localhost"
					],
					"port": "18401",
					"path": [
						"odata",
						"Company"
					],
					"query": [
						{
							"key": "$select",
							"value": "name"
						},
						{
							"key": "$filter",
							"value": "rating le 8"
						},
						{
							"key": "orderby",
							"value": "name"
						},
						{
							"key": "$expand",
							"value": "specialDrink($select=Name)"
						}
					]
				}
			},
			"response": []
		}
	]
}